(module WS2812-2020 (layer F.Cu) (tedit 5DA2A692)
  (fp_text reference REF** (at 0 3.8) (layer F.SilkS)
    (effects (font (size 1 1) (thickness 0.15)))
  )
  (fp_text value WS2812-2020 (at 0 -4) (layer F.Fab)
    (effects (font (size 1 1) (thickness 0.15)))
  )
  (fp_line (start 1.4 -1.1) (end 1.4 1.1) (layer F.CrtYd) (width 0.03))
  (fp_line (start -1.4 1.1) (end -1.4 -1.1) (layer F.CrtYd) (width 0.03))
  (fp_line (start -1.4 -1.1) (end 1.4 -1.1) (layer F.CrtYd) (width 0.03))
  (fp_line (start 1.4 1.1) (end -1.4 1.1) (layer F.CrtYd) (width 0.03))
  (fp_poly (pts (xy 0 -1) (xy 0.5 -1) (xy 0.5 1) (xy 0 1)) (layer F.SilkS) (width 0))
  (pad 1 smd rect (at 0.915 0.55) (size 0.7 0.7) (layers F.Cu F.Paste F.Mask))
  (pad 2 smd rect (at 0.915 -0.55) (size 0.7 0.7) (layers F.Cu F.Paste F.Mask))
  (pad 3 smd rect (at -0.915 -0.55) (size 0.7 0.7) (layers F.Cu F.Paste F.Mask))
  (pad 4 smd rect (at -0.915 0.55) (size 0.7 0.7) (layers F.Cu F.Paste F.Mask))
  (model ${KIPRJMOD}/3dshapes/WS2812-2020.step
    (at (xyz 0 0 0))
    (scale (xyz 1 1 1))
    (rotate (xyz 0 0 0))
  )
)
